{
  "assets" : [
    {
      "idiom" : "watch",
      "filename" : "Circular.imageset",
      "role" : "circular"
    },
    {
      "idiom" : "watch",
      "filename" : "Elerium.imageset",
      "role" : "graphic-circular"
    },
    {
      "idiom" : "watch",
      "filename" : "Extra Large.imageset",
      "role" : "extra-large"
    },
    {
      "idiom" : "watch",
      "filename" : "Graphic Bezel.imageset",
      "role" : "graphic-bezel"
    },
    {
      "idiom" : "watch",
      "filename" : "Graphic Corner.imageset",
      "role" : "graphic-corner"
    },
    {
      "idiom" : "watch",
      "filename" : "Graphic Large Rectangular.imageset",
      "role" : "graphic-large-rectangular"
    },
    {
      "idiom" : "watch",
      "filename" : "Modular.imageset",
      "role" : "modular"
    },
    {
      "idiom" : "watch",
      "filename" : "Utilitarian.imageset",
      "role" : "utilitarian"
    }
  ],
  "info" : {
    "version" : 1,
    "author" : "xcode"
  }
}